[
  {
    "allDeclaredConstructors": true,
    "allDeclaredFields": true,
    "allDeclaredMethods": true,
    "allPublicConstructors": true,
    "allPublicFields": true,
    "allPublicMethods": true,
    "name": "kotlin.internal.jdk8.JDK8PlatformImplementations"
  },
  {
    "fields": [
      {
        "name": "Companion"
      }
    ],
    "name": "org.islandoftex.albatross.FontData"
  },
  {
    "methods": [
      {
        "name": "serializer",
        "parameterTypes": []
      }
    ],
    "name": "org.islandoftex.albatross.FontData$Companion"
  }
]
